{
    "success": true,
    "message": "Data send successfully",
    "data": {
        "info": {
            "currentPage": 2,
            "totalRecords": 826,
            "totalPages": 83
        },
        "results": [
            {
                "id": 11,
                "name": "Albert Einstein",
                "image": "https://rickandmortyapi.com/api/character/avatar/11.jpeg",
                "species": "Human"
            },
            {
                "id": 12,
                "name": "Alexander",
                "image": "https://rickandmortyapi.com/api/character/avatar/12.jpeg",
                "species": "Human"
            },
            {
                "id": 13,
                "name": "Alien Googah",
                "image": "https://rickandmortyapi.com/api/character/avatar/13.jpeg",
                "species": "Alien"
            },
            {
                "id": 14,
                "name": "Alien Morty",
                "image": "https://rickandmortyapi.com/api/character/avatar/14.jpeg",
                "species": "Alien"
            },
            {
                "id": 15,
                "name": "Alien Rick",
                "image": "https://rickandmortyapi.com/api/character/avatar/15.jpeg",
                "species": "Alien"
            },
            {
                "id": 16,
                "name": "Amish Cyborg",
                "image": "https://rickandmortyapi.com/api/character/avatar/16.jpeg",
                "species": "Alien"
            },
            {
                "id": 17,
                "name": "Annie",
                "image": "https://rickandmortyapi.com/api/character/avatar/17.jpeg",
                "species": "Human"
            },
            {
                "id": 18,
                "name": "Antenna Morty",
                "image": "https://rickandmortyapi.com/api/character/avatar/18.jpeg",
                "species": "Human"
            },
            {
                "id": 19,
                "name": "Antenna Rick",
                "image": "https://rickandmortyapi.com/api/character/avatar/19.jpeg",
                "species": "Human"
            },
            {
                "id": 20,
                "name": "Ants in my Eyes Johnson",
                "image": "https://rickandmortyapi.com/api/character/avatar/20.jpeg",
                "species": "Human"
            }
        ]
    }
}